{
	"process_id" : 20504,
	"version" : "2018.4.12f1",
	"app_path" : "C:/Program Files/Unity/Hub/Editor/2018.4.12f1/Editor/Unity.exe",
	"app_contents_path" : "C:/Program Files/Unity/Hub/Editor/2018.4.12f1/Editor/Data"
}